4: Data Manipulation
…
Use filter() to extract rows that meet criteria

Extract rows in non-consecutive years

drug_cos  %>% 
  filter(year %in% c(2013, 2018))

# A tibble: 26 x 9
   ticker name  location ebitdamargin grossmargin netmargin   ros
   <chr>  <chr> <chr>           <dbl>       <dbl>     <dbl> <dbl>
 1 ZTS    Zoet… New Jer…        0.222       0.634     0.111 0.176
 2 ZTS    Zoet… New Jer…        0.379       0.672     0.245 0.326
 3 PRGO   PERR… Ireland         0.236       0.362     0.125 0.19 
 4 PRGO   PERR… Ireland         0.178       0.387     0.028 0.088
 5 PFE    Pfiz… New Yor…        0.634       0.814     0.427 0.51 
 6 PFE    Pfiz… New Yor…        0.34        0.79      0.208 0.221
 7 MYL    Myla… United …        0.228       0.44      0.09  0.153
 8 MYL    Myla… United …        0.258       0.35      0.031 0.074
 9 MRK    Merc… New Jer…        0.282       0.615     0.1   0.123
10 MRK    Merc… New Jer…        0.313       0.681     0.147 0.206
# … with 16 more rows, and 2 more variables: roe <dbl>, year <dbl>

Extract every other year from 2012 to 2018

drug_cos  %>% 
  filter(year %in% seq(2012, 2018, by = 2))

# A tibble: 52 x 9
   ticker name  location ebitdamargin grossmargin netmargin    ros
   <chr>  <chr> <chr>           <dbl>       <dbl>     <dbl>  <dbl>
 1 ZTS    Zoet… New Jer…        0.217       0.64      0.101  0.171
 2 ZTS    Zoet… New Jer…        0.238       0.641     0.122  0.195
 3 ZTS    Zoet… New Jer…        0.335       0.659     0.168  0.286
 4 ZTS    Zoet… New Jer…        0.379       0.672     0.245  0.326
 5 PRGO   PERR… Ireland         0.226       0.345     0.127  0.183
 6 PRGO   PERR… Ireland         0.157       0.371     0.059  0.104
 7 PRGO   PERR… Ireland        -0.791       0.389    -0.76  -0.877
 8 PRGO   PERR… Ireland         0.178       0.387     0.028  0.088
 9 PFE    Pfiz… New Yor…        0.447       0.82      0.267  0.307
10 PFE    Pfiz… New Yor…        0.359       0.807     0.184  0.247
# … with 42 more rows, and 2 more variables: roe <dbl>, year <dbl>
…
Use select() to select, rename and reorder columns

Select columns ticker, name and ros

drug_cos  %>% 
  select(ticker, name, ros)

# A tibble: 104 x 3
   ticker name             ros
   <chr>  <chr>          <dbl>
 1 ZTS    Zoetis Inc     0.101
 2 ZTS    Zoetis Inc     0.171
 3 ZTS    Zoetis Inc     0.176
 4 ZTS    Zoetis Inc     0.195
 5 ZTS    Zoetis Inc     0.14 
 6 ZTS    Zoetis Inc     0.286
 7 ZTS    Zoetis Inc     0.321
 8 ZTS    Zoetis Inc     0.326
 9 PRGO   PERRIGO Co plc 0.178
10 PRGO   PERRIGO Co plc 0.183
# … with 94 more rows

Use select to exclude columns ticker, name and ros

drug_cos  %>% 
  select(-ticker, -name, -ros)

# A tibble: 104 x 6
   location          ebitdamargin grossmargin netmargin   roe  year
   <chr>                    <dbl>       <dbl>     <dbl> <dbl> <dbl>
 1 New Jersey; U.S.A        0.149       0.61      0.058 0.069  2011
 2 New Jersey; U.S.A        0.217       0.64      0.101 0.113  2012
 3 New Jersey; U.S.A        0.222       0.634     0.111 0.612  2013
 4 New Jersey; U.S.A        0.238       0.641     0.122 0.465  2014
 5 New Jersey; U.S.A        0.182       0.635     0.071 0.285  2015
 6 New Jersey; U.S.A        0.335       0.659     0.168 0.587  2016
 7 New Jersey; U.S.A        0.366       0.666     0.163 0.488  2017
 8 New Jersey; U.S.A        0.379       0.672     0.245 0.694  2018
 9 Ireland                  0.216       0.343     0.123 0.248  2011
10 Ireland                  0.226       0.345     0.127 0.236  2012
# … with 94 more rows

Rename and reorder columns with select

start with drug_cos THEN

change the name of location to headquarter

put the columns in this order: year, ticker, headquarter, netmargin, roe

drug_cos  %>% 
  select(year, ticker, headquarter =location, netmargin, roe )

# A tibble: 104 x 5
    year ticker headquarter       netmargin   roe
   <dbl> <chr>  <chr>                 <dbl> <dbl>
 1  2011 ZTS    New Jersey; U.S.A     0.058 0.069
 2  2012 ZTS    New Jersey; U.S.A     0.101 0.113
 3  2013 ZTS    New Jersey; U.S.A     0.111 0.612
 4  2014 ZTS    New Jersey; U.S.A     0.122 0.465
 5  2015 ZTS    New Jersey; U.S.A     0.071 0.285
 6  2016 ZTS    New Jersey; U.S.A     0.168 0.587
 7  2017 ZTS    New Jersey; U.S.A     0.163 0.488
 8  2018 ZTS    New Jersey; U.S.A     0.245 0.694
 9  2011 PRGO   Ireland               0.123 0.248
10  2012 PRGO   Ireland               0.127 0.236
# … with 94 more rows
Question: filter and select

Use inputs from your quiz question filter and select and replace SEE QUIZ with inputs from your quiz and replace the ??? in the code

start with drug_cos THEN

extract information for the tickers PFE, MRK, BMY THEN

select the variables ticker, year and ros

drug_cos  %>% 
  filter(ticker %in% c("PFE", "MRK", "BMY"))  %>% 
  select(ticker, year, ros)

# A tibble: 24 x 3
   ticker  year   ros
   <chr>  <dbl> <dbl>
 1 PFE     2011 0.223
 2 PFE     2012 0.307
 3 PFE     2013 0.51 
 4 PFE     2014 0.247
 5 PFE     2015 0.183
 6 PFE     2016 0.158
 7 PFE     2017 0.233
 8 PFE     2018 0.221
 9 MRK     2011 0.15 
10 MRK     2012 0.182
# … with 14 more rows
…
select the variables ticker, netmargin and roe. Change the name of roe to return_on_equity

drug_cos  %>% 
  ???(??? %in% c("???", "???"))  %>% 
  ???(ticker, ???, ??? = roe)

select ranges of columns

by name

drug_cos  %>% 
  select(ebitdamargin:netmargin)

# A tibble: 104 x 3
   ebitdamargin grossmargin netmargin
          <dbl>       <dbl>     <dbl>
 1        0.149       0.61      0.058
 2        0.217       0.64      0.101
 3        0.222       0.634     0.111
 4        0.238       0.641     0.122
 5        0.182       0.635     0.071
 6        0.335       0.659     0.168
 7        0.366       0.666     0.163
 8        0.379       0.672     0.245
 9        0.216       0.343     0.123
10        0.226       0.345     0.127
# … with 94 more rows

by position

drug_cos  %>% 
  select(4:6)

# A tibble: 104 x 3
   ebitdamargin grossmargin netmargin
          <dbl>       <dbl>     <dbl>
 1        0.149       0.61      0.058
 2        0.217       0.64      0.101
 3        0.222       0.634     0.111
 4        0.238       0.641     0.122
 5        0.182       0.635     0.071
 6        0.335       0.659     0.168
 7        0.366       0.666     0.163
 8        0.379       0.672     0.245
 9        0.216       0.343     0.123
10        0.226       0.345     0.127
# … with 94 more rows

select helper functions

starts_with("abc") matches columns start with “abc”

ends_with("abc") matches columns end with “abc”

contains("abc") matches columns contain “abc”

drug_cos  %>% 
  select(ticker, contains("locat"))

# A tibble: 104 x 2
   ticker location         
   <chr>  <chr>            
 1 ZTS    New Jersey; U.S.A
 2 ZTS    New Jersey; U.S.A
 3 ZTS    New Jersey; U.S.A
 4 ZTS    New Jersey; U.S.A
 5 ZTS    New Jersey; U.S.A
 6 ZTS    New Jersey; U.S.A
 7 ZTS    New Jersey; U.S.A
 8 ZTS    New Jersey; U.S.A
 9 PRGO   Ireland          
10 PRGO   Ireland          
# … with 94 more rows

drug_cos  %>% 
  select(ticker, starts_with("r"))

# A tibble: 104 x 3
   ticker   ros   roe
   <chr>  <dbl> <dbl>
 1 ZTS    0.101 0.069
 2 ZTS    0.171 0.113
 3 ZTS    0.176 0.612
 4 ZTS    0.195 0.465
 5 ZTS    0.14  0.285
 6 ZTS    0.286 0.587
 7 ZTS    0.321 0.488
 8 ZTS    0.326 0.694
 9 PRGO   0.178 0.248
10 PRGO   0.183 0.236
# … with 94 more rows

drug_cos  %>% 
  select(year, ends_with("margin"))

# A tibble: 104 x 4
    year ebitdamargin grossmargin netmargin
   <dbl>        <dbl>       <dbl>     <dbl>
 1  2011        0.149       0.61      0.058
 2  2012        0.217       0.64      0.101
 3  2013        0.222       0.634     0.111
 4  2014        0.238       0.641     0.122
 5  2015        0.182       0.635     0.071
 6  2016        0.335       0.659     0.168
 7  2017        0.366       0.666     0.163
 8  2018        0.379       0.672     0.245
 9  2011        0.216       0.343     0.123
10  2012        0.226       0.345     0.127
# … with 94 more rows

Use group_by to set up data for operations by group

group_by

drug_cos  %>% 
  group_by(ticker)

# A tibble: 104 x 9
# Groups:   ticker [13]
   ticker name  location ebitdamargin grossmargin netmargin   ros
   <chr>  <chr> <chr>           <dbl>       <dbl>     <dbl> <dbl>
 1 ZTS    Zoet… New Jer…        0.149       0.61      0.058 0.101
 2 ZTS    Zoet… New Jer…        0.217       0.64      0.101 0.171
 3 ZTS    Zoet… New Jer…        0.222       0.634     0.111 0.176
 4 ZTS    Zoet… New Jer…        0.238       0.641     0.122 0.195
 5 ZTS    Zoet… New Jer…        0.182       0.635     0.071 0.14 
 6 ZTS    Zoet… New Jer…        0.335       0.659     0.168 0.286
 7 ZTS    Zoet… New Jer…        0.366       0.666     0.163 0.321
 8 ZTS    Zoet… New Jer…        0.379       0.672     0.245 0.326
 9 PRGO   PERR… Ireland         0.216       0.343     0.123 0.178
10 PRGO   PERR… Ireland         0.226       0.345     0.127 0.183
# … with 94 more rows, and 2 more variables: roe <dbl>, year <dbl>

drug_cos  %>% 
  group_by(year)

# A tibble: 104 x 9
# Groups:   year [8]
   ticker name  location ebitdamargin grossmargin netmargin   ros
   <chr>  <chr> <chr>           <dbl>       <dbl>     <dbl> <dbl>
 1 ZTS    Zoet… New Jer…        0.149       0.61      0.058 0.101
 2 ZTS    Zoet… New Jer…        0.217       0.64      0.101 0.171
 3 ZTS    Zoet… New Jer…        0.222       0.634     0.111 0.176
 4 ZTS    Zoet… New Jer…        0.238       0.641     0.122 0.195
 5 ZTS    Zoet… New Jer…        0.182       0.635     0.071 0.14 
 6 ZTS    Zoet… New Jer…        0.335       0.659     0.168 0.286
 7 ZTS    Zoet… New Jer…        0.366       0.666     0.163 0.321
 8 ZTS    Zoet… New Jer…        0.379       0.672     0.245 0.326
 9 PRGO   PERR… Ireland         0.216       0.343     0.123 0.178
10 PRGO   PERR… Ireland         0.226       0.345     0.127 0.183
# … with 94 more rows, and 2 more variables: roe <dbl>, year <dbl>
…
